...
----------------------------------------------------------------------
Ran 3 tests in 0.001s

OK
Name               Stmts   Miss Branch BrPart  Cover   Missing
--------------------------------------------------------------
Diplomacy.py         126      8     42      2    94%   38, 56, 67-70, 117, 120
TestDiplomacy.py      21      0      0      0   100%
--------------------------------------------------------------
TOTAL                147      8     42      2    95%
